%YAML 1.1
%TAG !u! tag:unity3d.com,2011:
--- !u!1 &4241213296991660179
GameObject:
  m_ObjectHideFlags: 0
  m_CorrespondingSourceObject: {fileID: 0}
  m_PrefabInstance: {fileID: 0}
  m_PrefabAsset: {fileID: 0}
  serializedVersion: 6
  m_Component:
  - component: {fileID: 4241213296991660176}
  - component: {fileID: 974378742}
  - component: {fileID: 5969551161257228401}
  - component: {fileID: 4241213296991660177}
  m_Layer: 6
  m_Name: PlayerPrefab
  m_TagString: Untagged
  m_Icon: {fileID: 0}
  m_NavMeshLayer: 0
  m_StaticEditorFlags: 0
  m_IsActive: 1
--- !u!4 &4241213296991660176
Transform:
  m_ObjectHideFlags: 0
  m_CorrespondingSourceObject: {fileID: 0}
  m_PrefabInstance: {fileID: 0}
  m_PrefabAsset: {fileID: 0}
  m_GameObject: {fileID: 4241213296991660179}
  m_LocalRotation: {x: 0, y: 0, z: 0, w: 1}
  m_LocalPosition: {x: 0, y: 0, z: 0}
  m_LocalScale: {x: 1, y: 1, z: 1}
  m_Children:
  - {fileID: 7601756097486450544}
  m_Father: {fileID: 0}
  m_RootOrder: 0
  m_LocalEulerAnglesHint: {x: 0, y: 0, z: 0}
--- !u!54 &974378742
Rigidbody:
  m_ObjectHideFlags: 0
  m_CorrespondingSourceObject: {fileID: 0}
  m_PrefabInstance: {fileID: 0}
  m_PrefabAsset: {fileID: 0}
  m_GameObject: {fileID: 4241213296991660179}
  serializedVersion: 2
  m_Mass: 1
  m_Drag: 0
  m_AngularDrag: 0.05
  m_UseGravity: 1
  m_IsKinematic: 0
  m_Interpolate: 0
  m_Constraints: 112
  m_CollisionDetection: 0
--- !u!136 &5969551161257228401
CapsuleCollider:
  m_ObjectHideFlags: 0
  m_CorrespondingSourceObject: {fileID: 0}
  m_PrefabInstance: {fileID: 0}
  m_PrefabAsset: {fileID: 0}
  m_GameObject: {fileID: 4241213296991660179}
  m_Material: {fileID: 0}
  m_IsTrigger: 0
  m_Enabled: 1
  m_Radius: 0.25
  m_Height: 1.85
  m_Direction: 1
  m_Center: {x: 0, y: 0.9, z: 0}
--- !u!114 &4241213296991660177
MonoBehaviour:
  m_ObjectHideFlags: 0
  m_CorrespondingSourceObject: {fileID: 0}
  m_PrefabInstance: {fileID: 0}
  m_PrefabAsset: {fileID: 0}
  m_GameObject: {fileID: 4241213296991660179}
  m_Enabled: 1
  m_EditorHideFlags: 0
  m_Script: {fileID: 11500000, guid: 57d70572bda0c7a45bcb7e00bedcd371, type: 3}
  m_Name: 
  m_EditorClassIdentifier: 
  id: 0
  username: 
  isReady: 0
  isCaught: 0
  speed: 4
  rotationSpeed: 720
  playerMask:
    serializedVersion: 2
    m_Bits: 64
--- !u!1001 &6134540316647212286
PrefabInstance:
  m_ObjectHideFlags: 0
  serializedVersion: 2
  m_Modification:
    m_TransformParent: {fileID: 4241213296991660176}
    m_Modifications:
    - target: {fileID: 3969729162267554100, guid: 06c1939dc4669764db61cb67bdcf2691, type: 3}
      propertyPath: m_Name
      value: Character
      objectReference: {fileID: 0}
    - target: {fileID: 4349526228546825102, guid: 06c1939dc4669764db61cb67bdcf2691, type: 3}
      propertyPath: m_RootOrder
      value: 0
      objectReference: {fileID: 0}
    - target: {fileID: 4349526228546825102, guid: 06c1939dc4669764db61cb67bdcf2691, type: 3}
      propertyPath: m_LocalPosition.x
      value: 0
      objectReference: {fileID: 0}
    - target: {fileID: 4349526228546825102, guid: 06c1939dc4669764db61cb67bdcf2691, type: 3}
      propertyPath: m_LocalPosition.y
      value: 0
      objectReference: {fileID: 0}
    - target: {fileID: 4349526228546825102, guid: 06c1939dc4669764db61cb67bdcf2691, type: 3}
      propertyPath: m_LocalPosition.z
      value: 0
      objectReference: {fileID: 0}
    - target: {fileID: 4349526228546825102, guid: 06c1939dc4669764db61cb67bdcf2691, type: 3}
      propertyPath: m_LocalRotation.w
      value: 1
      objectReference: {fileID: 0}
    - target: {fileID: 4349526228546825102, guid: 06c1939dc4669764db61cb67bdcf2691, type: 3}
      propertyPath: m_LocalRotation.x
      value: 0
      objectReference: {fileID: 0}
    - target: {fileID: 4349526228546825102, guid: 06c1939dc4669764db61cb67bdcf2691, type: 3}
      propertyPath: m_LocalRotation.y
      value: 0
      objectReference: {fileID: 0}
    - target: {fileID: 4349526228546825102, guid: 06c1939dc4669764db61cb67bdcf2691, type: 3}
      propertyPath: m_LocalRotation.z
      value: 0
      objectReference: {fileID: 0}
    - target: {fileID: 4349526228546825102, guid: 06c1939dc4669764db61cb67bdcf2691, type: 3}
      propertyPath: m_LocalEulerAnglesHint.x
      value: 0
      objectReference: {fileID: 0}
    - target: {fileID: 4349526228546825102, guid: 06c1939dc4669764db61cb67bdcf2691, type: 3}
      propertyPath: m_LocalEulerAnglesHint.y
      value: 0
      objectReference: {fileID: 0}
    - target: {fileID: 4349526228546825102, guid: 06c1939dc4669764db61cb67bdcf2691, type: 3}
      propertyPath: m_LocalEulerAnglesHint.z
      value: 0
      objectReference: {fileID: 0}
    m_RemovedComponents: []
  m_SourcePrefab: {fileID: 100100000, guid: 06c1939dc4669764db61cb67bdcf2691, type: 3}
--- !u!4 &7601756097486450544 stripped
Transform:
  m_CorrespondingSourceObject: {fileID: 4349526228546825102, guid: 06c1939dc4669764db61cb67bdcf2691, type: 3}
  m_PrefabInstance: {fileID: 6134540316647212286}
  m_PrefabAsset: {fileID: 0}
